{
  "selection": [
    {
      "order": 12,
      "name": "arrow",
      "prevSize": 32
    },
    {
      "order": 5,
      "name": "menu",
      "prevSize": 32,
      "ligatures": ""
    },
    {
      "order": 7,
      "name": "close",
      "prevSize": 32,
      "ligatures": ""
    },
    {
      "order": 6,
      "name": "delimiter",
      "prevSize": 32,
      "ligatures": ""
    }
  ],
  "metadata": {
    "name": "solice",
    "importSize": {
      "width": 132,
      "height": 32
    },
    "url": "http://www.solice.ch",
    "iconsHash": 2068532950
  },
  "height": 1024,
  "prevSize": 32,
  "icons": [
    {
      "paths": [
        "M3955.552 455.296l-457.152-332.128c-20.64-19.328-24.128-51.424-7.104-74.912 18.464-25.44 54.016-31.072 79.456-12.608l598.24 434.688c11.776 11.040 18.016 26.272 17.984 41.664v0.192c0 21.504-11.936 40.192-29.504 49.856l-586.72 426.304c-25.44 18.464-60.992 12.832-79.456-12.608-17.024-23.488-13.536-55.584 7.104-74.912l457.216-332.192-3874.016 0.064c-31.456 0-56.896-25.472-56.896-56.896 0.032-28.992 21.76-52.928 49.792-56.416l3881.056-0.096z"
      ],
      "width": 4224,
      "grid": 32,
      "tags": [
        "arrow"
      ],
      "defaultCode": 59648
    },
    {
      "paths": [
        "M153.087 80.327c17.067-23.438 48.697-30.037 73.443-16.384l6.030 3.812 625.775 455.109c25.429 18.489 31.061 54.101 12.572 79.473-17.067 23.495-48.697 30.037-73.443 16.384l-6.030-3.812-625.775-455.109c-25.429-18.489-31.061-54.044-12.572-79.473z",
        "M153.087 421.659c17.067-23.438 48.697-30.037 73.443-16.384l6.030 3.812 625.775 455.109c25.429 18.489 31.061 54.101 12.572 79.473-17.067 23.495-48.697 30.037-73.443 16.384l-6.030-3.812-625.775-455.109c-25.429-18.489-31.061-54.044-12.572-79.473z"
      ],
      "grid": 32,
      "tags": [
        "menu"
      ],
      "defaultCode": 59649
    },
    {
      "paths": [
        "M511.999 441.649l279.437-203.227 6.030-3.812c24.746-13.653 56.376-7.054 73.443 16.384 18.489 25.429 12.857 60.984-12.572 79.473l-249.607 181.532 249.606 181.532c25.429 18.489 31.061 54.101 12.572 79.473-17.067 23.495-48.697 30.037-73.443 16.384l-6.030-3.812-279.436-203.227-279.437 203.227-6.030 3.812c-24.746 13.653-56.376 7.111-73.443-16.384-18.489-25.372-12.857-60.984 12.572-79.473l249.606-181.532-249.607-181.532c-25.429-18.489-31.061-54.044-12.572-79.473 17.067-23.438 48.697-30.037 73.443-16.384l6.030 3.812 279.438 203.227z"
      ],
      "grid": 32,
      "tags": [
        "close"
      ],
      "defaultCode": 59650
    },
    {
      "paths": [
        "M153.088 250.994c17.067-23.438 48.697-30.037 73.443-16.384l6.030 3.812 625.775 455.109c25.429 18.489 31.061 54.101 12.572 79.473-17.067 23.495-48.697 30.037-73.443 16.384l-6.030-3.812-625.775-455.109c-25.429-18.489-31.061-54.044-12.572-79.473z"
      ],
      "grid": 32,
      "tags": [
        "delimiter"
      ],
      "defaultCode": 59651
    }
  ],
  "colorThemes": [],
  "preferences": {
    "showGlyphs": true,
    "showCodes": true,
    "showQuickUse": true,
    "showQuickUse2": true,
    "showSVGs": true,
    "fontPref": {
      "prefix": "icon-",
      "metadata": {
        "fontFamily": "icomoon",
        "majorVersion": 1,
        "minorVersion": 1
      },
      "metrics": {
        "emSize": 1024,
        "baseline": 6.25,
        "whitespace": 50
      },
      "embed": false,
      "showSelector": true,
      "showMetrics": true,
      "showMetadata": true,
      "showVersion": true
    },
    "imagePref": {
      "prefix": "icon-",
      "png": true,
      "useClassSelector": true,
      "color": 0,
      "bgColor": 16777215,
      "name": "icomoon",
      "classSelector": ".icon",
      "height": 32,
      "columns": 16,
      "margin": 16
    },
    "historySize": 50,
    "gridSize": 16,
    "showGrid": false,
    "showLiga": false
  },
  "IcoMoonType": "icon-set"
}