// Jest Snapshot v1, https://goo.gl/fbAQLP

exports[`NavigationItem renders navigation item passing properties and slot to CustomLink 1`] = `
<div class="nav__item-wrapper">
  <customlink-stub url="/about" target="_self" class="nav__item">About us</customlink-stub>
</div>
`;
